Fasta format sequence files • floundeR
…
The floundeR Fasta R6 object.

The floundeR package contained R6 objects to describe many bioinformatics data types. There is a simple constructor for loading a fasta format sequence file.

fasta <- Fasta$new(canonical_fasta)
#> 
#> ── creating floundR::fasta with [cluster_cons.fasta.bgz] ───────────────────────
#> ℹ index for [cluster_cons.fasta.bgz] found
#> ℹ loading fasta index [cluster_cons.fasta.bgz.idx]
#> ✓ [18656] fasta entries parsed
print(fasta)
#> <floundeR::Fasta>
fasta$as_tibble()
#> # A tibble: 18,656 × 3
#>    read_id   sequence_length_template passes_filtering
#>    <chr>                        <int> <lgl>           
#>  1 cluster_0                     3337 TRUE            
#>  2 cluster_1                     3065 TRUE            
#>  3 cluster_2                     1514 TRUE            
#>  4 cluster_3                     2048 TRUE            
#>  5 cluster_4                     4056 TRUE            
#>  6 cluster_5                     1278 TRUE            
#>  7 cluster_6                     1913 TRUE            
#>  8 cluster_7                     2104 TRUE            
#>  9 cluster_8                     3428 TRUE            
#> 10 cluster_9                     2913 TRUE            
#> # … with 18,646 more rows
…
