02 - Fastq format sequence files • floundeR
…
The floundeR package is distributed with a collection of canned datasets. These include an example FASTQ file that has been gzip compressed and contains a somewhat lacklustre historical dataset that is interesting only in its compactness.

library(floundeR)
#> floundeR v0.0.4

canonical_fastq <- flnDr("example.fastq.gz")
fastq <- Fastq$new(canonical_fastq)
#> → opening fastq stream

print(fastq)
#> <floundeR::Fastq>

fastq$as_tibble()
#> # A tibble: 625 x 3
#>    sequence_length_template mean_qscore_template passes_filtering
#>                       <int>                <dbl> <lgl>           
#>  1                      481                 8.58 TRUE            
#>  2                      700                 8.94 TRUE            
#>  3                      722                 8.71 TRUE            
#>  4                      402                 8.68 TRUE            
#>  5                      840                 8.77 TRUE            
#>  6                      351                 8.55 TRUE            
#>  7                      780                 9.18 TRUE            
#>  8                      784                 9.07 TRUE            
#>  9                      803                 8.67 TRUE            
#> 10                      769                 8.46 TRUE            
#> # … with 615 more rows
…
