…
`qc_quality_distribution()` returns schema version, Q-score bin bounds,
pass/fail state, read count, and base yield.

`qc_channel_density()` returns schema version, channel, read/base yield,
pass/fail read counts, and pass fraction.

`qc_barcode_composition()` returns schema version, barcode arrangement,
read/base yield, pass/fail read counts, and read/base fractions.

## Examples

``` r
summary_file <- flnDr("sequencing_summary.txt.bz2")
qc_yield_over_time(summary_file)
#> # A tibble: 384 × 10
#>    schema_version            bin_start_seconds bin_end_seconds bin_start_minutes
#>    <chr>                                 <dbl>           <dbl>             <dbl>
#>  1 flounder.qc_yield_over_t…                 0             900                 0
#>  2 flounder.qc_yield_over_t…                 0             900                 0
#>  3 flounder.qc_yield_over_t…               900            1800                15
#>  4 flounder.qc_yield_over_t…               900            1800                15
#>  5 flounder.qc_yield_over_t…              1800            2700                30
#>  6 flounder.qc_yield_over_t…              1800            2700                30
#>  7 flounder.qc_yield_over_t…              2700            3600                45
#>  8 flounder.qc_yield_over_t…              2700            3600                45
#>  9 flounder.qc_yield_over_t…              3600            4500                60
#> 10 flounder.qc_yield_over_t…              3600            4500                60
#> # ℹ 374 more rows
#> # ℹ 6 more variables: bin_end_minutes <dbl>, passes_filtering <lgl>,
#> #   read_count <int>, bases <dbl>, cumulative_read_count <int>,
#> #   cumulative_bases <dbl>
…
#>    <chr>                        <dbl>          <dbl> <lgl>                 <int>
#>  1 flounder.qc_qual…             0              1.26 FALSE                   218
#>  2 flounder.qc_qual…             1.26           2.53 FALSE                   401
#>  3 flounder.qc_qual…             2.53           3.79 FALSE                   249
#>  4 flounder.qc_qual…             3.79           5.05 FALSE                   283
#>  5 flounder.qc_qual…             5.05           6.32 FALSE                   336
#>  6 flounder.qc_qual…             6.32           7.58 FALSE                   158
#>  7 flounder.qc_qual…             6.32           7.58 TRUE                    175
#>  8 flounder.qc_qual…             7.58           8.84 TRUE                    708
#>  9 flounder.qc_qual…             8.84          10.1  TRUE                   1270
#> 10 flounder.qc_qual…            10.1           11.4  TRUE                   3555
#> 11 flounder.qc_qual…            11.4           12.6  TRUE                   2647
#> # ℹ 1 more variable: bases <dbl>
qc_channel_density(summary_file)
#> # A tibble: 502 × 7
#>    schema_version  channel read_count  bases passed_read_count failed_read_count
#>    <chr>             <int>      <int>  <dbl>             <int>             <int>
#>  1 flounder.qc_ch…       1         15 253786                12                 3
#>  2 flounder.qc_ch…       2         20 279012                19                 1
#>  3 flounder.qc_ch…       3         17 136937                14                 3
#>  4 flounder.qc_ch…       4         12 244863                11                 1
#>  5 flounder.qc_ch…       5         12 202759                11                 1
#>  6 flounder.qc_ch…       6         13 272392                12                 1
#>  7 flounder.qc_ch…       7         17 208594                12                 5
#>  8 flounder.qc_ch…       8         26 418172                24                 2
#>  9 flounder.qc_ch…       9         25 334420                22                 3
#> 10 flounder.qc_ch…      10         31 399163                29                 2
#> # ℹ 492 more rows
#> # ℹ 1 more variable: pass_fraction <dbl>
…
